%YAML 1.1
%TAG !u! tag:unity3d.com,2011:
--- !u!74 &7400000
AnimationClip:
  m_ObjectHideFlags: 0
  m_PrefabParentObject: {fileID: 0}
  m_PrefabInternal: {fileID: 0}
  m_Name: TrokeyAttack
  serializedVersion: 6
  m_Legacy: 0
  m_Compressed: 0
  m_UseHighQualityCurve: 1
  m_RotationCurves: []
  m_CompressedRotationCurves: []
  m_EulerCurves: []
  m_PositionCurves: []
  m_ScaleCurves: []
  m_FloatCurves: []
  m_PPtrCurves:
  - curve:
    - time: 0
      value: {fileID: 21300000, guid: 8437c890649934898adbbe77cab99daa, type: 3}
    - time: 0.083333336
      value: {fileID: 21300000, guid: b2d23a0c58f094ac1af82dd81fd1fbbd, type: 3}
    - time: 0.16666667
      value: {fileID: 21300000, guid: 2616ff2f1ea2147449bb8540899e1312, type: 3}
    - time: 0.25
      value: {fileID: 21300000, guid: 6eb303d3db84149ecadd4fabc95d3ab2, type: 3}
    - time: 0.33333334
      value: {fileID: 21300000, guid: d4de91eec60fa4f14ac3735e69240933, type: 3}
    - time: 0.4166667
      value: {fileID: 21300000, guid: b06066f12fa7944bc99943e215b4a93a, type: 3}
    - time: 0.5
      value: {fileID: 21300000, guid: 2d00ec840a56b4c51bb11f094cd602d9, type: 3}
    - time: 0.5833333
      value: {fileID: 21300000, guid: 6940ceaa293854f4bbe2078ea07953ec, type: 3}
    attribute: m_Sprite
    path: 
    classID: 212
    script: {fileID: 0}
  m_SampleRate: 12
  m_WrapMode: 0
  m_Bounds:
    m_Center: {x: 0, y: 0, z: 0}
    m_Extent: {x: 0, y: 0, z: 0}
  m_ClipBindingConstant:
    genericBindings:
    - serializedVersion: 2
      path: 0
      attribute: 0
      script: {fileID: 0}
      typeID: 212
      customType: 23
      isPPtrCurve: 1
    pptrCurveMapping:
    - {fileID: 21300000, guid: 8437c890649934898adbbe77cab99daa, type: 3}
    - {fileID: 21300000, guid: b2d23a0c58f094ac1af82dd81fd1fbbd, type: 3}
    - {fileID: 21300000, guid: 2616ff2f1ea2147449bb8540899e1312, type: 3}
    - {fileID: 21300000, guid: 6eb303d3db84149ecadd4fabc95d3ab2, type: 3}
    - {fileID: 21300000, guid: d4de91eec60fa4f14ac3735e69240933, type: 3}
    - {fileID: 21300000, guid: b06066f12fa7944bc99943e215b4a93a, type: 3}
    - {fileID: 21300000, guid: 2d00ec840a56b4c51bb11f094cd602d9, type: 3}
    - {fileID: 21300000, guid: 6940ceaa293854f4bbe2078ea07953ec, type: 3}
  m_AnimationClipSettings:
    serializedVersion: 2
    m_AdditiveReferencePoseClip: {fileID: 0}
    m_AdditiveReferencePoseTime: 0
    m_StartTime: 0
    m_StopTime: 0.6666666
    m_OrientationOffsetY: 0
    m_Level: 0
    m_CycleOffset: 0
    m_HasAdditiveReferencePose: 0
    m_LoopTime: 1
    m_LoopBlend: 0
    m_LoopBlendOrientation: 0
    m_LoopBlendPositionY: 0
    m_LoopBlendPositionXZ: 0
    m_KeepOriginalOrientation: 0
    m_KeepOriginalPositionY: 1
    m_KeepOriginalPositionXZ: 0
    m_HeightFromFeet: 0
    m_Mirror: 0
  m_EditorCurves: []
  m_EulerEditorCurves: []
  m_HasGenericRootTransform: 0
  m_HasMotionFloatCurves: 0
  m_GenerateMotionCurves: 0
  m_Events: []
