%YAML 1.1
%TAG !u! tag:unity3d.com,2011:
--- !u!74 &7400000
AnimationClip:
  m_ObjectHideFlags: 0
  m_PrefabParentObject: {fileID: 0}
  m_PrefabInternal: {fileID: 0}
  m_Name: JungleMonsterRunning
  serializedVersion: 6
  m_Legacy: 0
  m_Compressed: 0
  m_UseHighQualityCurve: 1
  m_RotationCurves: []
  m_CompressedRotationCurves: []
  m_EulerCurves: []
  m_PositionCurves: []
  m_ScaleCurves: []
  m_FloatCurves: []
  m_PPtrCurves:
  - curve:
    - time: 0
      value: {fileID: 21300000, guid: 32fc25279fff94847a771f5b34ff1cdd, type: 3}
    - time: 0.083333336
      value: {fileID: 21300000, guid: f1dd022721c504f64a426f7c387460b3, type: 3}
    - time: 0.16666667
      value: {fileID: 21300000, guid: d8d4bc5af5b574b58bbd97438e104ccd, type: 3}
    - time: 0.25
      value: {fileID: 21300000, guid: 1dd5c98cd35fb4fa682fa6eea9a0bdcd, type: 3}
    - time: 0.33333334
      value: {fileID: 21300000, guid: fc5accd5744fb44ffb992d9f119d8b96, type: 3}
    - time: 0.41666666
      value: {fileID: 21300000, guid: 52133ac961ab7488fb577d859f2de287, type: 3}
    - time: 0.5
      value: {fileID: 21300000, guid: 34d6f6fad543c4a56b3a88f259c152a7, type: 3}
    - time: 0.5833333
      value: {fileID: 21300000, guid: f16479aa4186c4726a9d921c23f1083f, type: 3}
    attribute: m_Sprite
    path: 
    classID: 212
    script: {fileID: 0}
  m_SampleRate: 12
  m_WrapMode: 0
  m_Bounds:
    m_Center: {x: 0, y: 0, z: 0}
    m_Extent: {x: 0, y: 0, z: 0}
  m_ClipBindingConstant:
    genericBindings:
    - serializedVersion: 2
      path: 0
      attribute: 0
      script: {fileID: 0}
      typeID: 212
      customType: 23
      isPPtrCurve: 1
    pptrCurveMapping:
    - {fileID: 21300000, guid: 32fc25279fff94847a771f5b34ff1cdd, type: 3}
    - {fileID: 21300000, guid: f1dd022721c504f64a426f7c387460b3, type: 3}
    - {fileID: 21300000, guid: d8d4bc5af5b574b58bbd97438e104ccd, type: 3}
    - {fileID: 21300000, guid: 1dd5c98cd35fb4fa682fa6eea9a0bdcd, type: 3}
    - {fileID: 21300000, guid: fc5accd5744fb44ffb992d9f119d8b96, type: 3}
    - {fileID: 21300000, guid: 52133ac961ab7488fb577d859f2de287, type: 3}
    - {fileID: 21300000, guid: 34d6f6fad543c4a56b3a88f259c152a7, type: 3}
    - {fileID: 21300000, guid: f16479aa4186c4726a9d921c23f1083f, type: 3}
  m_AnimationClipSettings:
    serializedVersion: 2
    m_AdditiveReferencePoseClip: {fileID: 0}
    m_AdditiveReferencePoseTime: 0
    m_StartTime: 0
    m_StopTime: 0.6666666
    m_OrientationOffsetY: 0
    m_Level: 0
    m_CycleOffset: 0
    m_HasAdditiveReferencePose: 0
    m_LoopTime: 1
    m_LoopBlend: 0
    m_LoopBlendOrientation: 0
    m_LoopBlendPositionY: 0
    m_LoopBlendPositionXZ: 0
    m_KeepOriginalOrientation: 0
    m_KeepOriginalPositionY: 1
    m_KeepOriginalPositionXZ: 0
    m_HeightFromFeet: 0
    m_Mirror: 0
  m_EditorCurves: []
  m_EulerEditorCurves: []
  m_HasGenericRootTransform: 0
  m_HasMotionFloatCurves: 0
  m_GenerateMotionCurves: 0
  m_Events: []
