%YAML 1.1
%TAG !u! tag:unity3d.com,2011:
--- !u!74 &7400000
AnimationClip:
  m_ObjectHideFlags: 0
  m_PrefabParentObject: {fileID: 0}
  m_PrefabInternal: {fileID: 0}
  m_Name: EnemyAttackAnimation
  serializedVersion: 6
  m_Legacy: 0
  m_Compressed: 0
  m_UseHighQualityCurve: 1
  m_RotationCurves: []
  m_CompressedRotationCurves: []
  m_EulerCurves: []
  m_PositionCurves: []
  m_ScaleCurves: []
  m_FloatCurves: []
  m_PPtrCurves:
  - curve:
    - time: 0
      value: {fileID: 21300000, guid: 2d4123afdcba3415f987465bbe389caa, type: 3}
    - time: 0.083333336
      value: {fileID: 21300000, guid: 7e6fdd70dcbc746588f8091c80a7423a, type: 3}
    - time: 0.16666667
      value: {fileID: 21300000, guid: 7fdc782d0fd2749a0879597f9f2c75d0, type: 3}
    - time: 0.25
      value: {fileID: 21300000, guid: 10071e549dff64b9caf113cb85839f67, type: 3}
    - time: 0.33333334
      value: {fileID: 21300000, guid: 3eb2d3c76d2f342c989c361bd97dff27, type: 3}
    - time: 0.41666666
      value: {fileID: 21300000, guid: f97e30d1f9fd4494aafad54856f86530, type: 3}
    - time: 0.5
      value: {fileID: 21300000, guid: e559f1d78f92241789b224f95caf0450, type: 3}
    - time: 0.5833333
      value: {fileID: 21300000, guid: f45b19943fc0b4b538e7c9d970a081ed, type: 3}
    attribute: m_Sprite
    path: 
    classID: 212
    script: {fileID: 0}
  m_SampleRate: 12
  m_WrapMode: 0
  m_Bounds:
    m_Center: {x: 0, y: 0, z: 0}
    m_Extent: {x: 0, y: 0, z: 0}
  m_ClipBindingConstant:
    genericBindings:
    - serializedVersion: 2
      path: 0
      attribute: 0
      script: {fileID: 0}
      typeID: 212
      customType: 23
      isPPtrCurve: 1
    pptrCurveMapping:
    - {fileID: 21300000, guid: 2d4123afdcba3415f987465bbe389caa, type: 3}
    - {fileID: 21300000, guid: 7e6fdd70dcbc746588f8091c80a7423a, type: 3}
    - {fileID: 21300000, guid: 7fdc782d0fd2749a0879597f9f2c75d0, type: 3}
    - {fileID: 21300000, guid: 10071e549dff64b9caf113cb85839f67, type: 3}
    - {fileID: 21300000, guid: 3eb2d3c76d2f342c989c361bd97dff27, type: 3}
    - {fileID: 21300000, guid: f97e30d1f9fd4494aafad54856f86530, type: 3}
    - {fileID: 21300000, guid: e559f1d78f92241789b224f95caf0450, type: 3}
    - {fileID: 21300000, guid: f45b19943fc0b4b538e7c9d970a081ed, type: 3}
  m_AnimationClipSettings:
    serializedVersion: 2
    m_AdditiveReferencePoseClip: {fileID: 0}
    m_AdditiveReferencePoseTime: 0
    m_StartTime: 0
    m_StopTime: 0.6666666
    m_OrientationOffsetY: 0
    m_Level: 0
    m_CycleOffset: 0
    m_HasAdditiveReferencePose: 0
    m_LoopTime: 1
    m_LoopBlend: 0
    m_LoopBlendOrientation: 0
    m_LoopBlendPositionY: 0
    m_LoopBlendPositionXZ: 0
    m_KeepOriginalOrientation: 0
    m_KeepOriginalPositionY: 1
    m_KeepOriginalPositionXZ: 0
    m_HeightFromFeet: 0
    m_Mirror: 0
  m_EditorCurves: []
  m_EulerEditorCurves: []
  m_HasGenericRootTransform: 0
  m_HasMotionFloatCurves: 0
  m_GenerateMotionCurves: 0
  m_Events: []
