%YAML 1.1
%TAG !u! tag:unity3d.com,2011:
--- !u!74 &7400000
AnimationClip:
  m_ObjectHideFlags: 0
  m_PrefabParentObject: {fileID: 0}
  m_PrefabInternal: {fileID: 0}
  m_Name: evilUlt
  serializedVersion: 6
  m_Legacy: 0
  m_Compressed: 0
  m_UseHighQualityCurve: 1
  m_RotationCurves: []
  m_CompressedRotationCurves: []
  m_EulerCurves: []
  m_PositionCurves: []
  m_ScaleCurves: []
  m_FloatCurves: []
  m_PPtrCurves:
  - curve:
    - time: 0
      value: {fileID: 21300000, guid: 6665bb1cc5a6945a3bd7c4d255d0078d, type: 3}
    - time: 0.083333336
      value: {fileID: 21300000, guid: 0af0746b539294556a4007767f1f1b98, type: 3}
    - time: 0.16666667
      value: {fileID: 21300000, guid: 352cacd7a7989436fbb7d25a5115df1c, type: 3}
    - time: 0.25
      value: {fileID: 21300000, guid: a8e736ce45a704f39bab10ab8a52a746, type: 3}
    - time: 0.33333334
      value: {fileID: 21300000, guid: 157fddd6a07c54460bdead4d50655910, type: 3}
    - time: 0.4166667
      value: {fileID: 21300000, guid: 644568e6b5ecf41158e8cb72ef0996f9, type: 3}
    - time: 0.5
      value: {fileID: 21300000, guid: 67bf67a6a2ff244ad8ca4aac1cf75eac, type: 3}
    - time: 0.5833333
      value: {fileID: 21300000, guid: a6ba6539e92c443108c72558b3f6931b, type: 3}
    attribute: m_Sprite
    path: 
    classID: 212
    script: {fileID: 0}
  m_SampleRate: 12
  m_WrapMode: 0
  m_Bounds:
    m_Center: {x: 0, y: 0, z: 0}
    m_Extent: {x: 0, y: 0, z: 0}
  m_ClipBindingConstant:
    genericBindings:
    - serializedVersion: 2
      path: 0
      attribute: 0
      script: {fileID: 0}
      typeID: 212
      customType: 23
      isPPtrCurve: 1
    pptrCurveMapping:
    - {fileID: 21300000, guid: 6665bb1cc5a6945a3bd7c4d255d0078d, type: 3}
    - {fileID: 21300000, guid: 0af0746b539294556a4007767f1f1b98, type: 3}
    - {fileID: 21300000, guid: 352cacd7a7989436fbb7d25a5115df1c, type: 3}
    - {fileID: 21300000, guid: a8e736ce45a704f39bab10ab8a52a746, type: 3}
    - {fileID: 21300000, guid: 157fddd6a07c54460bdead4d50655910, type: 3}
    - {fileID: 21300000, guid: 644568e6b5ecf41158e8cb72ef0996f9, type: 3}
    - {fileID: 21300000, guid: 67bf67a6a2ff244ad8ca4aac1cf75eac, type: 3}
    - {fileID: 21300000, guid: a6ba6539e92c443108c72558b3f6931b, type: 3}
  m_AnimationClipSettings:
    serializedVersion: 2
    m_AdditiveReferencePoseClip: {fileID: 0}
    m_AdditiveReferencePoseTime: 0
    m_StartTime: 0
    m_StopTime: 0.6666666
    m_OrientationOffsetY: 0
    m_Level: 0
    m_CycleOffset: 0
    m_HasAdditiveReferencePose: 0
    m_LoopTime: 1
    m_LoopBlend: 0
    m_LoopBlendOrientation: 0
    m_LoopBlendPositionY: 0
    m_LoopBlendPositionXZ: 0
    m_KeepOriginalOrientation: 0
    m_KeepOriginalPositionY: 1
    m_KeepOriginalPositionXZ: 0
    m_HeightFromFeet: 0
    m_Mirror: 0
  m_EditorCurves: []
  m_EulerEditorCurves: []
  m_HasGenericRootTransform: 0
  m_HasMotionFloatCurves: 0
  m_GenerateMotionCurves: 0
  m_Events: []
