%YAML 1.1
%TAG !u! tag:unity3d.com,2011:
--- !u!74 &7400000
AnimationClip:
  m_ObjectHideFlags: 0
  m_PrefabParentObject: {fileID: 0}
  m_PrefabInternal: {fileID: 0}
  m_Name: WolfStandByAnimation
  serializedVersion: 6
  m_Legacy: 0
  m_Compressed: 0
  m_UseHighQualityCurve: 1
  m_RotationCurves: []
  m_CompressedRotationCurves: []
  m_EulerCurves: []
  m_PositionCurves: []
  m_ScaleCurves: []
  m_FloatCurves: []
  m_PPtrCurves:
  - curve:
    - time: 0
      value: {fileID: 21300000, guid: f1d80906c107a4012a8414fcef6d8d10, type: 3}
    - time: 0.16666667
      value: {fileID: 21300000, guid: 1e6907ef207734828a106a1327e4f427, type: 3}
    - time: 0.33333334
      value: {fileID: 21300000, guid: de7cab49b14a441e0beee3dcc6ad5976, type: 3}
    - time: 0.5
      value: {fileID: 21300000, guid: c5caea31afe2e4cae8fff6e84f1b0197, type: 3}
    - time: 0.6666667
      value: {fileID: 21300000, guid: 871f29d741d23478fbfaff2c775096c2, type: 3}
    - time: 0.8333334
      value: {fileID: 21300000, guid: 868389a5e10f9404b84a80ab7e3eb9f8, type: 3}
    - time: 1
      value: {fileID: 21300000, guid: 4722bc6fbe3d54f97a219d4fc35705ff, type: 3}
    - time: 1.1666666
      value: {fileID: 21300000, guid: 582f54ea8e42f40fda11c61bc4118feb, type: 3}
    - time: 1.3333333
      value: {fileID: 21300000, guid: 5271f8431502242a3addebef66c07e6e, type: 3}
    - time: 1.4999999
      value: {fileID: 21300000, guid: 3f4d57792ad634872aaf0d6cc9fc8660, type: 3}
    - time: 1.6666665
      value: {fileID: 21300000, guid: 62d0065138d1e43edbd8111be18a78a1, type: 3}
    - time: 1.8333331
      value: {fileID: 21300000, guid: 5ac39f22f2444425eb6347da086892d9, type: 3}
    attribute: m_Sprite
    path: 
    classID: 212
    script: {fileID: 0}
  m_SampleRate: 6
  m_WrapMode: 0
  m_Bounds:
    m_Center: {x: 0, y: 0, z: 0}
    m_Extent: {x: 0, y: 0, z: 0}
  m_ClipBindingConstant:
    genericBindings:
    - serializedVersion: 2
      path: 0
      attribute: 0
      script: {fileID: 0}
      typeID: 212
      customType: 23
      isPPtrCurve: 1
    pptrCurveMapping:
    - {fileID: 21300000, guid: f1d80906c107a4012a8414fcef6d8d10, type: 3}
    - {fileID: 21300000, guid: 1e6907ef207734828a106a1327e4f427, type: 3}
    - {fileID: 21300000, guid: de7cab49b14a441e0beee3dcc6ad5976, type: 3}
    - {fileID: 21300000, guid: c5caea31afe2e4cae8fff6e84f1b0197, type: 3}
    - {fileID: 21300000, guid: 871f29d741d23478fbfaff2c775096c2, type: 3}
    - {fileID: 21300000, guid: 868389a5e10f9404b84a80ab7e3eb9f8, type: 3}
    - {fileID: 21300000, guid: 4722bc6fbe3d54f97a219d4fc35705ff, type: 3}
    - {fileID: 21300000, guid: 582f54ea8e42f40fda11c61bc4118feb, type: 3}
    - {fileID: 21300000, guid: 5271f8431502242a3addebef66c07e6e, type: 3}
    - {fileID: 21300000, guid: 3f4d57792ad634872aaf0d6cc9fc8660, type: 3}
    - {fileID: 21300000, guid: 62d0065138d1e43edbd8111be18a78a1, type: 3}
    - {fileID: 21300000, guid: 5ac39f22f2444425eb6347da086892d9, type: 3}
  m_AnimationClipSettings:
    serializedVersion: 2
    m_AdditiveReferencePoseClip: {fileID: 0}
    m_AdditiveReferencePoseTime: 0
    m_StartTime: 0
    m_StopTime: 1.9999998
    m_OrientationOffsetY: 0
    m_Level: 0
    m_CycleOffset: 0
    m_HasAdditiveReferencePose: 0
    m_LoopTime: 1
    m_LoopBlend: 0
    m_LoopBlendOrientation: 0
    m_LoopBlendPositionY: 0
    m_LoopBlendPositionXZ: 0
    m_KeepOriginalOrientation: 0
    m_KeepOriginalPositionY: 1
    m_KeepOriginalPositionXZ: 0
    m_HeightFromFeet: 0
    m_Mirror: 0
  m_EditorCurves: []
  m_EulerEditorCurves: []
  m_HasGenericRootTransform: 0
  m_HasMotionFloatCurves: 0
  m_GenerateMotionCurves: 0
  m_Events: []
